[
    {
      "icon": "american-football",
      "name": "Action Sheet"
      
    },
    {
      "icon": "appstore",
      "name": "Alert"
      
    },
    {
      "icon": "beaker",
      "name": "Avatar"
      
    },
    {
      "icon": "radio-button-on",
      "name": "Botones y router"
      
    },
    {
      "icon": "card",
      "name": "Cards"
      
    },
    {
      "icon": "checkmark-circle-outline",
      "name": "Checkbox"
      
    },
    {
      "icon": "calendar",
      "name": "DateTime"
      
    },
    {
      "icon": "car",
      "name": "Fabs"
      
    },
    {
      "icon": "grid",
      "name": "Grid - Rows"
      
    },
    {
      "icon": "infinite",
      "name": "Infinite Scroll"
      
    },
    {
      "icon": "hammer",
      "name": "Input - Forms"
      
    },
    {
      "icon": "list",
      "name": "Listas - Sliding"
      
    },
    {
      "icon": "reorder",
      "name": "Listas - Reorder"
      
    },
    {
      "icon": "refresh-circle",
      "name": "Loading"
      
    },
    {
      "icon": "phone-portrait",
      "name": "Modal"
      
    },
    {
      "icon": "arrow-round-down",
      "name": "Refresher"
      
    },
    {
      "icon": "search",
      "name": "Searchbar"
      
    },
    {
      "icon": "copy",
      "name": "Segment"
      
    },
    {
      "icon": "albums",
      "name": "Slides"
      
    },
    {
      "icon": "cog",
      "name": "Tabs"
      
    }
  ]
  